﻿{
  "Name": "Record name",
  "User": {
    "LoanWriterFirstName": "adasd asdas"
  },
  "Household": [
    {
      "Name": "Doe Household",
      "NumberOfAdults": 0,
      "NumberOfDependands": 1
    },
    {
      "Name": "Doe Household s",
      "NumberOfAdults": 2,
      "NumberOfDependands": 3
    }
  ],
  "PersonApplicants": [
    {
      "Applicant": "Mr John Doe",
      "Household": "Doe household",
      "PrimaryApplicant": "Yes",
      "LenderStaff": "No",
      "ExistingCustomer": "Yes",
      "AccountNumber": 12314123123123,
      "HousingStatus": "Own Mortgage",
      "MaterialStatus": "Married"
    },
    {
      "Applicant": "Mr John Doe",
      "Household": "Doe household",
      "PrimaryApplicant": "Yes",
      "LenderStaff": "No",
      "ExistingCustomer": "Yes",
      "AccountNumber": 12314123123123,
      "HousingStatus": "Own Mortgage",
      "MaterialStatus": "Married"
    }
  ]
}
